module bitbucket.org/kl65us/stats-processor

require (
	github.com/fatih/color v1.7.0
	github.com/globalsign/mgo v0.0.0-20180905125535-1ca0a4f7cbcb
	github.com/mattn/go-colorable v0.0.9 // indirect
	github.com/mattn/go-isatty v0.0.4 // indirect
)
